testing multi data
…
my_data_splits <- initial_split(mal_gdp, prop = 0.5)

exploratory_data <- training(my_data_splits)
test_data <- testing(my_data_splits)
exploratory_data

# A tibble: 3,078 × 6
   Entity     Code   Year Malaria deaths per 1…¹ Malaria cases per 1,…²      GDP
   <chr>      <chr> <dbl>                  <dbl>                  <dbl>    <dbl>
 1 Southern … <NA>   2000                 0.0109                     NA NA      
 2 Honduras   HND    2016                 0.369                      NA  2.17e10
 3 Zimbabwe   ZWE    2009                10.1                        NA  9.67e 9
 4 United Ar… ARE    1994                 0.0278                     NA  5.93e10
 5 Lebanon    LBN    2016                 0                          NA  5.11e10
 6 Burundi    BDI    2004               144.                         NA  9.15e 8
 7 Sweden     SWE    1993                 0                          NA  2.13e11
 8 Montenegro MNE    1998                 0                          NA  8.54e 8
 9 Guyana     GUY    2014                 1.81                       NA  4.13e 9
10 Mozambique MOZ    1993               153.                         NA  2.88e 9
# ℹ 3,068 more rows
# ℹ abbreviated names: ¹​`Malaria deaths per 100,000 people`,
#   ²​`Malaria cases per 1,000 at risk people`
…
